\relax 
\providecommand\hyper@newdestlabel[2]{}
\providecommand\HyperFirstAtBeginDocument{\AtBeginDocument}
\HyperFirstAtBeginDocument{\ifx\hyper@anchor\@undefined
\global\let\oldcontentsline\contentsline
\gdef\contentsline#1#2#3#4{\oldcontentsline{#1}{#2}{#3}}
\global\let\oldnewlabel\newlabel
\gdef\newlabel#1#2{\newlabelxx{#1}#2}
\gdef\newlabelxx#1#2#3#4#5#6{\oldnewlabel{#1}{{#2}{#3}}}
\AtEndDocument{\ifx\hyper@anchor\@undefined
\let\contentsline\oldcontentsline
\let\newlabel\oldnewlabel
\fi}
\fi}
\global\let\hyper@last\relax 
\gdef\HyperFirstAtBeginDocument#1{#1}
\providecommand\HyField@AuxAddToFields[1]{}
\providecommand\HyField@AuxAddToCoFields[2]{}
\citation{fever}
\@writefile{toc}{\contentsline {section}{Abstract}{1}{section*.1}\protected@file@percent }
\@writefile{toc}{\contentsline {section}{\numberline {1}Text Statistics (Q1)}{1}{section.1}\protected@file@percent }
\@writefile{toc}{\contentsline {section}{\numberline {2}Document Retrieval (Q2-3)}{1}{section.2}\protected@file@percent }
\@writefile{lof}{\contentsline {figure}{\numberline {1}{\ignorespaces Zipf's law for Wikipedia.\relax }}{1}{figure.caption.3}\protected@file@percent }
\providecommand*\caption@xref[2]{\@setref\relax\@undefined{#1}}
\newlabel{fig:zipf}{{1}{1}{Zipf's law for Wikipedia.\relax }{figure.caption.3}{}}
\@writefile{lot}{\contentsline {table}{\numberline {1}{\ignorespaces \centering  Document retrieval method performance for the first 10 verifiable training subset claims.\relax }}{1}{table.caption.4}\protected@file@percent }
\newlabel{tab:docsRecall}{{1}{1}{\centering Document retrieval method performance for the first 10 verifiable training subset claims.\relax }{table.caption.4}{}}
\@writefile{lof}{\contentsline {figure}{\numberline {2}{\ignorespaces Performance vs $k$. $k=5$ is highlighted in grey.\relax }}{2}{figure.caption.5}\protected@file@percent }
\newlabel{fig:kvsPerf}{{2}{2}{Performance vs $k$. $k=5$ is highlighted in grey.\relax }{figure.caption.5}{}}
\@writefile{lof}{\contentsline {figure}{\numberline {3}{\ignorespaces Combining methods for higher macro recall.\relax }}{2}{figure.caption.6}\protected@file@percent }
\newlabel{fig:methodComb}{{3}{2}{Combining methods for higher macro recall.\relax }{figure.caption.6}{}}
\@writefile{toc}{\contentsline {section}{\numberline {3}Sentence Relevance (Q4-5)}{2}{section.3}\protected@file@percent }
\@writefile{lot}{\contentsline {table}{\numberline {2}{\ignorespaces \centering  Sentence retrieval method performance.\relax }}{2}{table.caption.7}\protected@file@percent }
\newlabel{tab:relAcc}{{2}{2}{\centering Sentence retrieval method performance.\relax }{table.caption.7}{}}
\@writefile{toc}{\contentsline {section}{\numberline {4}Truthfulness of Claims (Q6)}{3}{section.4}\protected@file@percent }
\@writefile{lof}{\contentsline {figure}{\numberline {4}{\ignorespaces Learning curve for logistic regression.\relax }}{3}{figure.caption.8}\protected@file@percent }
\newlabel{fig:learningCurve}{{4}{3}{Learning curve for logistic regression.\relax }{figure.caption.8}{}}
\@writefile{lof}{\contentsline {figure}{\numberline {5}{\ignorespaces Learning rate vs training set loss.\relax }}{3}{figure.caption.9}\protected@file@percent }
\newlabel{fig:learningRate}{{5}{3}{Learning rate vs training set loss.\relax }{figure.caption.9}{}}
\@writefile{lot}{\contentsline {table}{\numberline {3}{\ignorespaces \centering  Neural network design comparison.\relax }}{3}{table.caption.10}\protected@file@percent }
\newlabel{tab:nnPerfs}{{3}{3}{\centering Neural network design comparison.\relax }{table.caption.10}{}}
\citation{fever}
\citation{nie2019combining}
\citation{zhong2019reasoning}
\citation{zellers2019neuralfakenews}
\@writefile{toc}{\contentsline {section}{\numberline {5}Literature Review (Q7)}{4}{section.5}\protected@file@percent }
\@writefile{toc}{\contentsline {section}{\numberline {6}Limitations}{4}{section.6}\protected@file@percent }
\bibstyle{ACM-Reference-Format}
\bibdata{references}
\bibcite{nie2019combining}{{1}{2019}{{Nie et~al\mbox  {.}}}{{Nie, Chen, and Bansal}}}
\bibcite{fever}{{2}{2018}{{Thorne et~al\mbox  {.}}}{{Thorne, Vlachos, Christodoulopoulos, and Mittal}}}
\bibcite{zellers2019neuralfakenews}{{3}{2019}{{Zellers et~al\mbox  {.}}}{{Zellers, Holtzman, Rashkin, Bisk, Farhadi, Roesner, and Choi}}}
\bibcite{zhong2019reasoning}{{4}{2019}{{Zhong et~al\mbox  {.}}}{{Zhong, Xu, Tang, Xu, Duan, Zhou, Wang, and Yin}}}
\newlabel{tocindent-1}{0pt}
\newlabel{tocindent0}{0pt}
\newlabel{tocindent1}{6.25499pt}
\newlabel{tocindent2}{0pt}
\newlabel{tocindent3}{0pt}
\@writefile{toc}{\contentsline {section}{References}{5}{section*.12}\protected@file@percent }
\newlabel{TotPages}{{5}{5}{}{page.5}{}}
